{
	"info": {
		"_postman_id": "361ab2f7-1545-4f7c-b727-f2cecfd2fdba",
		"name": "Practitioner 2.0",
		"schema": "https://schema.getpostman.com/json/collection/v2.1.0/collection.json"
	},
	"item": [
		{
			"name": "Saludo",
			"request": {
				"method": "GET",
				"header": [],
				"url": {
					"raw": "http://localhost:8080/hola/v1",
					"protocol": "http",
					"host": [
						"localhost"
					],
					"port": "8080",
					"path": [
						"hola",
						"v1"
					]
				}
			},
			"response": []
		},
		{
			"name": "Modificar Saludo",
			"request": {
				"method": "PUT",
				"header": [],
				"body": {
					"mode": "raw",
					"raw": "Como estas?"
				},
				"url": {
					"raw": "http://localhost:8080/hola/v1",
					"protocol": "http",
					"host": [
						"localhost"
					],
					"port": "8080",
					"path": [
						"hola",
						"v1"
					]
				}
			},
			"response": []
		},
		{
			"name": "Cliente-Spring-boot: listaCliente",
			"request": {
				"method": "GET",
				"header": [],
				"url": {
					"raw": "http://localhost:9000/api/v1/clientes/lista",
					"protocol": "http",
					"host": [
						"localhost"
					],
					"port": "9000",
					"path": [
						"api",
						"v1",
						"clientes",
						"lista"
					]
				}
			},
			"response": []
		},
		{
			"name": "Cliente-Spring-boot: crearCliente",
			"event": [
				{
					"listen": "prerequest",
					"script": {
						"exec": [
							"// Generar un documento aleatorio.\",\t\t\t\t\t\t\t\r",
							"const documento = Math.trunc(12345678 + Math.random() * 8888);\t\t\t\t\t\t\t\r",
							"\t\t\t\t\t\t\t\r",
							"// generar un nombre completo aleatorio.\",\t\t\t\t\t\t\t\r",
							"const apellidos = [\"Gonzalez\",\"Jimenez\",\"Ramirez\",\"Ortiz\",\"Perez\"];\t\t\t\t\t\t\t\r",
							"const nombres = [\"Juan\",\"Ana\",\"Graciela\",\"Roberto\",\"Jaime\"];\t\t\t\t\t\t\t\r",
							"const unApellido = apellidos[_.random(apellidos.length - 1)];\t\t\t\t\t\t\t\r",
							"const unNombre = nombres[_.random(nombres.length - 1)];\t\t\t\t\t\t\t\r",
							"const nombreCompleto = unNombre + \" \" + unApellido;\t\t\t\t\t\t\t\r",
							"\t\t\t\t\t\t\t\r",
							"const correo_e = unNombre + \".\" + unApellido + \"@micorreo.com\";\t\t\t\t\t\t\t\r",
							"\t\t\t\t\t\t\t\r",
							"const edad = _.random(18, 98);\t\t\t\t\t\t\t\r",
							"\t\t\t\t\t\t\t\r",
							"const a = 2021 - edad;\t\t\t\t\t\t\t\r",
							"const m = _.random(1, 12);\t\t\t\t\t\t\t\r",
							"const d = _.random(1, 28);\t\t\t\t\t\t\t\r",
							"const fechaNacimiento = a + \"/\" + m + \"/\" + d;\t\t\t\t\t\t\t\r",
							"\t\t\t\t\t\t\t\r",
							"const direccion = \"Santa Rosa de Lima N° \" + _.random(100,1079);\t\t\t\t\t\t\t\r",
							"\t\t\t\t\t\t\t\r",
							"const t1 = _.random(100,777);\t\t\t\t\t\t\t\r",
							"const t2 = _.random(100,777);\t\t\t\t\t\t\t\r",
							"const t3 = _.random(100,777);\t\t\t\t\t\t\t\r",
							"const telefono = t1 + \" \" + t2 + \" \" + t3;\t\t\t\t\t\t\t\r",
							"\t\t\t\t\t\t\t\r",
							"pm.globals.set(\"direccion\",direccion);\t\t\t\t\t\t\t\r",
							"pm.globals.set(\"telefono\", telefono);\t\t\t\t\t\t\t\r",
							"pm.globals.set(\"correo_electronico\", correo_e);\t\t\t\t\t\t\t\r",
							"pm.globals.set(\"nombreCompleto\", nombreCompleto);\t\t\t\t\t\t\t\r",
							"pm.globals.set(\"documento\", documento);\t\t\t\t\t\t\t\r",
							"pm.globals.set(\"edad\", edad);\t\t\t\t\t\t\t\r",
							"pm.globals.set(\"fechaNacimiento\", fechaNacimiento);\t\t\t\t\t\t\t\r",
							"\t\t\t\t\t\t"
						],
						"type": "text/javascript"
					}
				}
			],
			"request": {
				"method": "POST",
				"header": [],
				"body": {
					"mode": "raw",
					"raw": "{\r\n    \"documento\": \"{{documento}}\",\r\n    \"nombre\": \"{{nombreCompleto}}\",\r\n    \"edad\": \"{{edad}}\",\r\n    \"fechaNacimiento\": \"{{fechaNacimiento}}\",\r\n    \"telefono\": \"{{telefono}}\",\r\n    \"correo\": \"{{correo_electronico}}\",\r\n    \"direccion\": \"{{direccion}}\"\r\n}",
					"options": {
						"raw": {
							"language": "json"
						}
					}
				},
				"url": {
					"raw": "http://localhost:9000/api/v1/clientes",
					"protocol": "http",
					"host": [
						"localhost"
					],
					"port": "9000",
					"path": [
						"api",
						"v1",
						"clientes"
					]
				}
			},
			"response": []
		},
		{
			"name": "Cliente-Spring-boot: crearCliente reemplazar",
			"request": {
				"method": "PUT",
				"header": [],
				"body": {
					"mode": "raw",
					"raw": "{\r\n    \"documento\": \"12345681\",\r\n    \"nombre\": \"Otro nombre\",\r\n    \"edad\": \"30\",\r\n    \"fechaNacimiento\": \"23/01/1985\",\r\n    \"telefono\": \"970841222\",\r\n    \"correo\": \"ian.gamboa@gmail.com\",\r\n    \"direccion\": \"ATE 738/5\"\r\n}",
					"options": {
						"raw": {
							"language": "json"
						}
					}
				},
				"url": {
					"raw": "http://localhost:9000/api/v1/clientes/12345681",
					"protocol": "http",
					"host": [
						"localhost"
					],
					"port": "9000",
					"path": [
						"api",
						"v1",
						"clientes",
						"12345681"
					]
				}
			},
			"response": []
		},
		{
			"name": "Cliente-Spring-boot: Actualizar parcialmente cliente",
			"request": {
				"method": "PATCH",
				"header": [],
				"body": {
					"mode": "raw",
					"raw": "{\r\n    \"documento\": \"12345682\",\r\n    \"nombre\": \"Federico\",\r\n    \"edad\": \"31\",\r\n    \"fechaNacimiento\": \"23/01/1995\",\r\n    \"telefono\": \"970841000\"\r\n\r\n}",
					"options": {
						"raw": {
							"language": "json"
						}
					}
				},
				"url": {
					"raw": "http://localhost:9000/api/v1/clientes/12345682",
					"protocol": "http",
					"host": [
						"localhost"
					],
					"port": "9000",
					"path": [
						"api",
						"v1",
						"clientes",
						"12345682"
					]
				}
			},
			"response": []
		},
		{
			"name": "Cliente-Spring-boot: obtenerCliente por documento",
			"protocolProfileBehavior": {
				"disableBodyPruning": true
			},
			"request": {
				"method": "GET",
				"header": [],
				"body": {
					"mode": "raw",
					"raw": "{\r\n    \"documento\": \"12345678\",\r\n    \"nombre\": \"Juan Rodrigez Ledesma\",\r\n    \"edad\": \"38\",\r\n    \"fechaNacimiento\": \"23/01/1985\",\r\n    \"telefono\": \"555 444 328\",\r\n    \"correo\": \"juanrledesma893493@gmail.com\",\r\n    \"direccion\": \"San Juan Capistrano 738/5\"\r\n}",
					"options": {
						"raw": {
							"language": "json"
						}
					}
				},
				"url": {
					"raw": "http://localhost:9000/api/v1/clientes/12345680",
					"protocol": "http",
					"host": [
						"localhost"
					],
					"port": "9000",
					"path": [
						"api",
						"v1",
						"clientes",
						"12345680"
					]
				}
			},
			"response": []
		},
		{
			"name": "Cliente-Spring-boot: eliminarCliente por documento",
			"request": {
				"method": "DELETE",
				"header": [],
				"body": {
					"mode": "raw",
					"raw": "{\r\n    \"documento\": \"12345678\",\r\n    \"nombre\": \"Juan Rodrigez Ledesma\",\r\n    \"edad\": \"38\",\r\n    \"fechaNacimiento\": \"23/01/1985\",\r\n    \"telefono\": \"555 444 328\",\r\n    \"correo\": \"juanrledesma893493@gmail.com\",\r\n    \"direccion\": \"San Juan Capistrano 738/5\"\r\n}",
					"options": {
						"raw": {
							"language": "json"
						}
					}
				},
				"url": {
					"raw": "http://localhost:9000/api/v1/clientes/12345682",
					"protocol": "http",
					"host": [
						"localhost"
					],
					"port": "9000",
					"path": [
						"api",
						"v1",
						"clientes",
						"12345682"
					]
				}
			},
			"response": []
		},
		{
			"name": "Cuenta-Spring-boot: listaCuenta",
			"request": {
				"method": "GET",
				"header": [],
				"url": {
					"raw": "http://localhost:9000/api/v1/clientes/12345683/cuentas",
					"protocol": "http",
					"host": [
						"localhost"
					],
					"port": "9000",
					"path": [
						"api",
						"v1",
						"clientes",
						"12345683",
						"cuentas"
					]
				}
			},
			"response": []
		},
		{
			"name": "Cuenta-Spring-boot: crearCuenta",
			"event": [
				{
					"listen": "prerequest",
					"script": {
						"exec": [
							"// Generar un documento aleatorio.\",\t\t\t\t\t\t\t\r",
							"const numero = Math.trunc(1234567890000000 + Math.random() * 8888);\t\t\t\t\t\t\t\r",
							"\t\t\t\t\t\t\t\r",
							"// generar un nombre completo aleatorio.\",\t\t\t\t\t\t\t\r",
							"const monedas = [\"PEN\",\"USD\"];\t\t\r",
							"const unMoneda = monedas[_.random(monedas.length - 1)];\t\t\t\t\t\t\t\r",
							"const tipos = [\"Ahorro\",\"CtaFija\",\"CtaGanadora\"];\t\t\t\t\t\t\t\t\t\t\t\r",
							"const unTipo = tipos[_.random(tipos.length - 1)];\t\t\r",
							"const estados = [\"Activo\",\"Inactivo\"];\t\t\t\t\t\t\t\t\t\t\t\r",
							"const unEstado = estados[_.random(estados.length - 1)];\t\t\t\t\t\t\t\t\t\t\t\t\r",
							"\t\t\t\t\t\t\t\t\t\t\t\t\r",
							"\t\t\t\t\t\t\t\r",
							"const saldo = _.random(1000, 10000);\t\t\t\t\t\t\t\r",
							"\t\t\t\t\t\r",
							"\t\t\t\t\t\t\t\r",
							"const oficina = _.random(1000,777);\t\t\t\t\t\t\t\t\t\t\t\t\t\r",
							"\t\t\t\t\t\t\t\r",
							"pm.globals.set(\"numero\",numero);\t\t\t\t\t\t\t\r",
							"pm.globals.set(\"moneda\", unMoneda);\t\t\t\t\t\t\t\r",
							"pm.globals.set(\"saldo\", saldo);\t\t\t\t\t\t\t\r",
							"pm.globals.set(\"tipo\", unTipo);\t\t\t\t\t\t\t\r",
							"pm.globals.set(\"estado\", unEstado);\t\t\t\t\t\t\t\r",
							"pm.globals.set(\"oficina\", oficina);\t\r",
							"\r",
							"  console.log(\"numero\"+pm.variables.get(\"numero\"))\r",
							"  console.log(\"moneda\"+pm.variables.get(\"moneda\"))\r",
							"  console.log(\"saldo\"+pm.variables.get(\"saldo\"))\r",
							"  console.log(\"tipo\"+pm.variables.get(\"tipo\"))\r",
							"  console.log(\"estado\"+pm.variables.get(\"estado\"))\r",
							"  console.log(\"oficina\"+pm.variables.get(\"oficina\"))\r",
							"\t\t\t\t\t\t\r",
							"\t\t\t\t\t\t"
						],
						"type": "text/javascript"
					}
				}
			],
			"request": {
				"method": "POST",
				"header": [],
				"body": {
					"mode": "raw",
					"raw": "{\r\n    \"numero\": \"{{numero}}\",\r\n    \"moneda\": \"{{moneda}}\",\r\n    \"saldo\": \"{{saldo}}\",\r\n    \"tipo\": \"{{tipo}}\",\r\n    \"estado\": \"{{estado}}\",\r\n    \"oficina\": \"{{oficina}}\"\r\n}",
					"options": {
						"raw": {
							"language": "json"
						}
					}
				},
				"url": {
					"raw": "http://localhost:9000/api/v1/clientes/12351426/cuentas",
					"protocol": "http",
					"host": [
						"localhost"
					],
					"port": "9000",
					"path": [
						"api",
						"v1",
						"clientes",
						"12351426",
						"cuentas"
					]
				}
			},
			"response": []
		},
		{
			"name": "Cuenta-Spring-boot: Cuenta reemplazar",
			"request": {
				"method": "PUT",
				"header": [],
				"body": {
					"mode": "raw",
					"raw": "{\r\n    \"numero\": \"0011200048795840\",\r\n    \"moneda\": \"USD\",\r\n    \"saldo\": \"3200\",\r\n    \"tipo\": \"AHORRO\",\r\n    \"estado\": \"ACTIVO\",\r\n    \"oficina\": \"ATE\"\r\n}",
					"options": {
						"raw": {
							"language": "json"
						}
					}
				},
				"url": {
					"raw": "http://localhost:9000/api/v1/cuentas/0011200048795840",
					"protocol": "http",
					"host": [
						"localhost"
					],
					"port": "9000",
					"path": [
						"api",
						"v1",
						"cuentas",
						"0011200048795840"
					]
				}
			},
			"response": []
		},
		{
			"name": "Cuenta-Spring-boot: Actualizar parcialmente cuenta",
			"request": {
				"method": "PATCH",
				"header": [],
				"body": {
					"mode": "raw",
					"raw": "{\r\n    \"numero\": \"0011200048794857\",\r\n    \"moneda\": \"USD\"\r\n}",
					"options": {
						"raw": {
							"language": "json"
						}
					}
				},
				"url": {
					"raw": "http://localhost:9000/api/v1/cuentas/0011200048794857",
					"protocol": "http",
					"host": [
						"localhost"
					],
					"port": "9000",
					"path": [
						"api",
						"v1",
						"cuentas",
						"0011200048794857"
					]
				}
			},
			"response": []
		},
		{
			"name": "Cuenta-Spring-boot: obtenerCuenta por numero",
			"protocolProfileBehavior": {
				"disableBodyPruning": true
			},
			"request": {
				"method": "GET",
				"header": [],
				"body": {
					"mode": "raw",
					"raw": "{\r\n    \"documento\": \"12345678\",\r\n    \"nombre\": \"Juan Rodrigez Ledesma\",\r\n    \"edad\": \"38\",\r\n    \"fechaNacimiento\": \"23/01/1985\",\r\n    \"telefono\": \"555 444 328\",\r\n    \"correo\": \"juanrledesma893493@gmail.com\",\r\n    \"direccion\": \"San Juan Capistrano 738/5\"\r\n}",
					"options": {
						"raw": {
							"language": "json"
						}
					}
				},
				"url": {
					"raw": "http://localhost:9000/api/v1/clientes/12345683/cuentas/0011200048795487",
					"protocol": "http",
					"host": [
						"localhost"
					],
					"port": "9000",
					"path": [
						"api",
						"v1",
						"clientes",
						"12345683",
						"cuentas",
						"0011200048795487"
					]
				}
			},
			"response": []
		},
		{
			"name": "Cuenta-Spring-boot: EliminarCuenta por numero",
			"request": {
				"method": "DELETE",
				"header": [],
				"url": {
					"raw": "http://localhost:9000/api/v1/clientes/12351426/cuentas/1234567890005373",
					"protocol": "http",
					"host": [
						"localhost"
					],
					"port": "9000",
					"path": [
						"api",
						"v1",
						"clientes",
						"12351426",
						"cuentas",
						"1234567890005373"
					]
				}
			},
			"response": []
		}
	]
}